Text Analysis of Science books
…
## Determining mirror for Project Gutenberg from http://www.gutenberg.org/robot/harvest

## Using mirror http://aleph.gutenberg.org

#************************************************************************** ## Pre-processing the corpus #************************************************************************** ###How many times was each word used in each text? Unnest_tokens breaks the text into individual tokens and performs tokenization. dplyrs count() finds the most common words in all the books as a whole.

physics_words <- physics %>%
  unnest_tokens(word, text) %>%
  count(author, word, sort = TRUE)

physics_words

## # A tibble: 12,671 x 3
##    author              word      n
##    <chr>               <chr> <int>
##  1 Galilei, Galileo    the    3760
##  2 Tesla, Nikola       the    3604
##  3 Huygens, Christiaan the    3553
##  4 Einstein, Albert    the    2993
##  5 Galilei, Galileo    of     2049
##  6 Einstein, Albert    of     2028
##  7 Tesla, Nikola       of     1737
##  8 Huygens, Christiaan of     1708
##  9 Huygens, Christiaan to     1207
## 10 Tesla, Nikola       a      1176
## #  with 12,661 more rows
…
physics %>%
  filter(str_detect(text, "RC")) %>%
  select(text)

## # A tibble: 44 x 1
##    text                                                                  
##    <chr>                                                                 
##  1 line RC, parallel and equal to AB, to be a portion of a wave of light,
##  2 represents the partial wave coming from the point A, after the wave RC
##  3 be the propagation of the wave RC which fell on AB, and would be the  
##  4 transparent body; seeing that the wave RC, having come to the aperture
##  5 incident rays. Let there be such a ray RC falling upon the surface    
##  6 CK. Make CO perpendicular to RC, and across the angle KCO adjust OK,  
##  7 the required refraction of the ray RC. The demonstration of this is,  
##  8 explaining ordinary refraction. For the refraction of the ray RC is   
##  9 29. Now as we have found CI the refraction of the ray RC, similarly   
## 10 the ray _r_C is inclined equally with RC, the line C_d_ will          
## #  with 34 more rows
…
#************************************************************************** ## Word cloud text frequency from the corpus #************************************************************************** The more number of times a specific word appears in a source of textual data, the bigger and bolder it appears in the word cloud.

library("SnowballC")
library("wordcloud")

## Warning: package 'wordcloud' was built under R version 3.6.3

## Loading required package: RColorBrewer

library("RColorBrewer")

physics_words %>%
  count(word)

## # A tibble: 7,490 x 2
##    word           n
##    <chr>      <int>
##  1 _1             1
##  2 _2             1
##  3 _3             1
##  4 _a             3
##  5 _a_            3
##  6 _a_bsolute     1
##  7 _a_ir          1
##  8 _a_n           1
##  9 _a_ncients     1
## 10 _ab_           2
## #  with 7,480 more rows
…
#************************************************************************** ## N-grams analysis from the corpus #**************************************************************************

N-grams help to understand the relationships between words. Bigrams require unnesting tokens by groups of two words occurring together the most.

physics_bigrams <- physics %>%
  unnest_tokens(bigram, text, token = "ngrams", n = 2)

physics_bigrams

## # A tibble: 149,423 x 3
##    gutenberg_id author        bigram            
##           <int> <chr>         <chr>             
##  1        13476 Tesla, Nikola experiments with  
##  2        13476 Tesla, Nikola with alternate    
##  3        13476 Tesla, Nikola alternate currents
##  4        13476 Tesla, Nikola currents of       
##  5        13476 Tesla, Nikola of high           
##  6        13476 Tesla, Nikola high potential    
##  7        13476 Tesla, Nikola potential and     
##  8        13476 Tesla, Nikola and high          
##  9        13476 Tesla, Nikola high frequency    
## 10        13476 Tesla, Nikola frequency a       
## #  with 149,413 more rows

The most common bigrams from dplyrs count().

physics_bigrams%>%
  count(bigram, sort = TRUE)

## # A tibble: 59,858 x 2
##    bigram        n
##    <chr>     <int>
##  1 of the     2786
##  2 to the     1175
##  3 in the      980
##  4 that the    553
##  5 the water   505
##  6 it is       502
##  7 the same    471
##  8 and the     389
##  9 from the    349
## 10 to be       335
## #  with 59,848 more rows
…
bigrams_separated <- physics_bigrams %>%
  separate(bigram, c("word1", "word2"), sep = " ")

bigrams_filtered <- bigrams_separated %>%
  filter(!word1 %in% stop_words$word) %>%
  filter(!word2 %in% stop_words$word)

# new bigram counts:
bigram_counts <- bigrams_filtered %>%
  count(word1, word2, sort = TRUE)

bigram_counts

## # A tibble: 9,783 x 3
##    word1         word2       n
##    <chr>         <chr>   <int>
##  1 straight      line      115
##  2 gravitational field      61
##  3 reference     body       56
##  4 straight      lines      49
##  5 absolute      gravity    43
##  6 ordinate      system     39
##  7 special       theory     37
##  8 cone          _a         35
##  9 illustration  fig        33
## 10 ethereal      matter     31
## #  with 9,773 more rows

tidyrs unite() function recombines the columns into one.

bigrams_united <- bigrams_filtered %>%
  unite(bigram, word1, word2, sep = " ")

bigrams_united

## # A tibble: 14,312 x 3
##    gutenberg_id author        bigram              
##           <int> <chr>         <chr>               
##  1        13476 Tesla, Nikola alternate currents  
##  2        13476 Tesla, Nikola lecture delivered   
##  3        13476 Tesla, Nikola electrical engineers
##  4        13476 Tesla, Nikola engineers london    
##  5        13476 Tesla, Nikola nikola tesla        
##  6        13476 Tesla, Nikola biographical sketch 
##  7        13476 Tesla, Nikola york 1892           
##  8        13476 Tesla, Nikola 1892 biographical   
##  9        13476 Tesla, Nikola biographical sketch 
## 10        13476 Tesla, Nikola nikola tesla        
## #  with 14,302 more rows

Trigrams are three consecutive terms occurring together frequently.

physics %>%
  unnest_tokens(trigram, text, token = "ngrams", n = 3) %>%
  separate(trigram, c("word1", "word2", "word3"), sep = " ") %>%
  filter(!word1 %in% stop_words$word,
         !word2 %in% stop_words$word,
         !word3 %in% stop_words$word) %>%
  count(word1, word2, word3, sort = TRUE)

## # A tibble: 3,213 x 4
##    word1      word2     word3         n
##    <chr>      <chr>     <chr>     <int>
##  1 degrees    40        minutes      17
##  2 degrees    20        minutes      15
##  3 grave      _in       specie_      14
##  4 _x_1       _x_2      _x_3         13
##  5 45         degrees   20           11
##  6 light      _in       vacuo_       11
##  7 space      time      continuum    11
##  8 6          degrees   40           10
##  9 disruptive discharge coil         10
## 10 reference  body      _k_          10
## #  with 3,203 more rows
…
bigram_tf_idf <- bigrams_united %>%
  count(author, bigram) %>%
  bind_tf_idf(bigram, author, n) %>%
  arrange(desc(tf_idf))

bigram_tf_idf

## # A tibble: 9,862 x 6
##    author              bigram                  n      tf   idf tf_idf
##    <chr>               <chr>               <int>   <dbl> <dbl>  <dbl>
##  1 Einstein, Albert    gravitational field    61 0.0163   1.39 0.0226
##  2 Einstein, Albert    reference body         56 0.0150   1.39 0.0207
##  3 Galilei, Galileo    absolute gravity       43 0.0135   1.39 0.0188
##  4 Galilei, Galileo    cone _a                35 0.0110   1.39 0.0153
##  5 Einstein, Albert    ordinate system        39 0.0104   1.39 0.0144
##  6 Einstein, Albert    special theory         37 0.00988  1.39 0.0137
##  7 Galilei, Galileo    _in specie_            30 0.00945  1.39 0.0131
##  8 Galilei, Galileo    specificall gravity    30 0.00945  1.39 0.0131
##  9 Huygens, Christiaan ethereal matter        31 0.00882  1.39 0.0122
## 10 Huygens, Christiaan 3 2                    30 0.00853  1.39 0.0118
## #  with 9,852 more rows
…
